{
    "prepare_queue": {
        "installed": [],
        "uninstalled": []
    },
    "config_munge": {
        "files": {}
    },
    "installed_plugins": {
        "cordova-plugin-customurlscheme": {
            "URL_SCHEME": "outlaymanwallet",
            "PACKAGE_NAME": "com.outlayman.wallet"
        },
        "cordova-plugin-inappbrowser": {
            "PACKAGE_NAME": "com.outlayman.wallet"
        },
        "cordova-plugin-social-message": {
            "PACKAGE_NAME": "com.outlayman.wallet"
        },
        "cordova-plugin-whitelist": {
            "PACKAGE_NAME": "com.outlayman.wallet"
        },
        "phonegap-nfc": {
            "PACKAGE_NAME": "com.outlayman.wallet"
        },
        "cordova-plugin-device": {
            "PACKAGE_NAME": "com.outlayman.wallet"
        },
        "phonegap-plugin-barcodescanner": {
            "PACKAGE_NAME": "com.outlayman.wallet"
        }
    },
    "dependent_plugins": {
        "cordova-plugin-compat": {
            "PACKAGE_NAME": "com.outlayman.wallet"
        }
    }
}