{
    "cordova-plugin-whitelist": {
        "source": {
            "type": "registry",
            "id": "cordova-plugin-whitelist@1"
        },
        "is_top_level": true,
        "variables": {}
    },
    "phonegap-nfc": {
        "source": {
            "type": "registry",
            "id": "phonegap-nfc"
        },
        "is_top_level": true,
        "variables": {}
    },
    "cordova-plugin-inappbrowser": {
        "source": {
            "type": "registry",
            "id": "cordova-plugin-inappbrowser"
        },
        "is_top_level": true,
        "variables": {}
    },
    "cordova-plugin-customurlscheme": {
        "source": {
            "type": "registry",
            "id": "cordova-plugin-customurlscheme"
        },
        "is_top_level": true,
        "variables": {
            "URL_SCHEME": "outlaymanwallet"
        }
    },
    "cordova-plugin-social-message": {
        "source": {
            "type": "registry",
            "id": "cordova-plugin-social-message"
        },
        "is_top_level": true,
        "variables": {}
    },
    "cordova-plugin-device": {
        "source": {
            "type": "registry",
            "id": "cordova-plugin-device@~1.1.1"
        },
        "is_top_level": true,
        "variables": {}
    },
    "phonegap-plugin-barcodescanner": {
        "source": {
            "type": "registry",
            "id": "phonegap-plugin-barcodescanner"
        },
        "is_top_level": true,
        "variables": {}
    },
    "cordova-plugin-compat": {
        "source": {
            "type": "registry",
            "id": "cordova-plugin-compat"
        },
        "is_top_level": false,
        "variables": {}
    }
}